{
	"code":0,
	"msg":"",
	"data":{
		"condition":{
			"roomId": "",
			"centersId": "", 
			"keyword": "", 
			"type": 2, 
			"listType":0,
			"time":"2016/09",
			"weekDate":"2016-09-18T00:00:00.000"
		},
		"leave":[{					
					"name":"test",
					"leaveType":7,
					"startDate":"2016-09-18T00:00:00.000",
					"endDate":"2016-09-18T00:00:00.000"
				},{
					"name":"test",
					"leaveType":7,
					"startDate":"2016-09-19T00:00:00.000",
					"endDate":"2016-09-19T00:00:00.000"
				},{
					"name":"test",
					"leaveType":1,
					"startDate":"2016-09-19T00:00:00.000",
					"endDate":"2016-09-20T00:00:00.000"
				},{
					"name":"test",
					"leaveType":1,
					"startDate":"2016-09-19T00:00:00.000",
					"endDate":"2016-09-21T00:00:00.000"
				},{
					"name":"test",
					"leaveType":7,
					"startDate":"2016-09-19T00:00:00.000",
					"endDate":"2016-09-25T00:00:00.000"
				}
				,{
					"name":"test",
					"leaveType":7,
					"startDate":"2016-09-20T00:00:00.000",
					"endDate":"2016-09-23T00:00:00.000"
				},{
					"name":"test",
					"leaveType":7,
					"startDate":"2016-09-24T00:00:00.000",
					"endDate":"2016-09-24T00:00:00.000"
				},{
					"name":"test",
					"leaveType":7,
					"startDate":"2016-09-15T00:00:00.000",
					"endDate":"2016-09-19T00:00:00.000"
				}],
		"weekDays":[{				
						"date":"2016-09-18T00:00:00.000",
						"day":18,
						"event":"",
						"today":false,	
						"eventList":[]
					},{				
						"date":"2016-09-19T00:00:00.000",
						"day":19,
						"event":"",
						"today":false,	
						"eventList":[
							{
								"id":"",
								"title":"test"
							},{
								"id":"",
								"title":"test1"
							}
						]		
					},{				
						"date":"2016-09-20T00:00:00.000",
						"day":20,
						"event":"",
						"today":false,	
						"eventList":[
							{
								"id":"",
								"title":"test"
							},{
								"id":"",
								"title":"test1"
							}
						]		
					},{				
						"date":"2016-09-21T00:00:00.000",
						"day":21,
						"event":"",
						"today":true,	
						"eventList":[
							{
								"id":"",
								"title":"test"
							},{
								"id":"",
								"title":"test1"
							}
						]		
					},{				
						"date":"2016-09-22T00:00:00.000",
						"day":22,
						"event":"",
						"today":false,	
						"eventList":[
							{
								"id":"",
								"title":"test"
							},{
								"id":"",
								"title":"test1"
							}
						]		
					},{				
						"date":"2016-09-23T00:00:00.000",
						"day":23,
						"event":"",
						"today":false,	
						"eventList":[
							{
								"id":"",
								"title":"test"
							},{
								"id":"",
								"title":"test1"
							}
						]		
					},{				
						"date":"2016-09-24T00:00:00.000",
						"day":24,
						"event":"",
						"today":false,	
						"eventList":[
							{
								"id":"",
								"title":"test"
							},{
								"id":"",
								"title":"test1"
							}
						]		
					}]
	}
}